shift_reg_8b.vcd
$date
  Tue May 01 17:16:01 2018
$end
$version
  GHDL v0
$end
$timescale
  1 fs
$end
$var reg 8 ! i[7:0] $end
$var reg 8 " o[7:0] $end
$var reg 1 # i_shift_in $end
$var reg 1 $ clk $end
$var reg 1 % enable $end
$var reg 2 & sel[1:0] $end
$scope module shift_reg_8b_0 $end
$var reg 8 ' i[7:0] $end
$var reg 1 ( i_shift_in $end
$var reg 2 ) sel[1:0] $end
$var reg 1 * clock $end
$var reg 1 + enable $end
$var reg 8 , o[7:0] $end
$var reg 8 - output_value[7:0] $end
$scope module shift_reg_1 $end
$var reg 4 . i[3:0] $end
$var reg 1 / r_shift_in $end
$var reg 1 0 l_shift_in $end
$var reg 2 1 sel[1:0] $end
$var reg 1 2 clock $end
$var reg 1 3 enable $end
$var reg 4 4 o[3:0] $end
$var reg 4 5 next_value[3:0] $end
$upscope $end
$scope module shift_reg_2 $end
$var reg 4 6 i[3:0] $end
$var reg 1 7 r_shift_in $end
$var reg 1 8 l_shift_in $end
$var reg 2 9 sel[1:0] $end
$var reg 1 : clock $end
$var reg 1 ; enable $end
$var reg 4 < o[3:0] $end
$var reg 4 = next_value[3:0] $end
$upscope $end
$upscope $end
$enddefinitions $end
#0
b01010101 !
b00000000 "
1#
1$
0%
b11 &
b01010101 '
1(
b11 )
1*
0+
b00000000 ,
b00000000 -
b0101 .
0/
10
b11 1
12
03
b0000 4
b0000 5
b0101 6
17
08
b11 9
1:
0;
b0000 <
b0000 =
#1000000
0$
0*
02
0:
#2000000
b11111111 !
1$
b11111111 '
1*
b1111 .
12
b1111 6
1:
#3000000
0$
0*
02
0:
#4000000
b01010101 !
0#
1$
b01010101 '
0(
1*
b0101 .
00
12
b0101 6
07
1:
#5000000
0$
0*
02
0:
#6000000
b11101110 !
1$
b11101110 '
1*
b1110 .
12
b1110 6
1:
#7000000
0$
0*
02
0:
#8000000
b11101110 "
1#
1$
1%
1(
1*
1+
b11101110 ,
b11101110 -
1/
10
12
13
b1110 4
b1110 5
17
1:
1;
b1110 <
b1110 =
#9000000
0$
0*
02
0:
#10000000
b01010101 !
b01010101 "
1$
b01010101 '
1*
b01010101 ,
b01010101 -
b0101 .
0/
12
b0101 4
b0101 5
b0101 6
18
1:
b0101 <
b0101 =
#11000000
0$
0*
02
0:
#12000000
b10011001 !
b10011001 "
0#
1$
b10011001 '
0(
1*
b10011001 ,
b10011001 -
b1001 .
1/
00
12
b1001 4
b1001 5
b1001 6
07
1:
b1001 <
b1001 =
#13000000
0$
0*
02
0:
#14000000
b11111111 !
b11111111 "
1$
b11111111 '
1*
b11111111 ,
b11111111 -
b1111 .
12
b1111 4
b1111 5
b1111 6
1:
b1111 <
b1111 =
#15000000
0$
0*
02
0:
#16000000
b01100110 !
b01100110 "
1#
1$
b01100110 '
1(
1*
b01100110 ,
b01100110 -
b0110 .
0/
10
12
b0110 4
b0110 5
b0110 6
17
08
1:
b0110 <
b0110 =
#17000000
0$
0*
02
0:
#18000000
b00000000 !
1$
0%
b10 &
b00000000 '
b10 )
1*
0+
b0000 .
b10 1
12
03
b0000 6
b10 9
1:
0;
#19000000
0$
0*
02
0:
#20000000
b11111111 !
1$
b11111111 '
1*
b1111 .
12
b1111 6
1:
#21000000
0$
0*
02
0:
#22000000
b00000000 !
0#
1$
b00000000 '
0(
1*
b0000 .
00
12
b0000 6
07
1:
#23000000
0$
0*
02
0:
#24000000
b11111111 !
1$
b11111111 '
1*
b1111 .
12
b1111 6
1:
#25000000
0$
0*
02
0:
#26000000
b00000000 !
b10110011 "
1#
1$
1%
b00000000 '
1(
1*
1+
b10110011 ,
b10110011 -
b0000 .
10
12
13
b1011 4
b1011 5
b0000 6
17
18
1:
1;
b0011 <
b0011 =
#27000000
0$
0*
02
0:
#28000000
b11111111 !
b11011001 "
1$
b11111111 '
1*
b11011001 ,
b11011001 -
b1111 .
1/
12
b1101 4
b1101 5
b1111 6
1:
b1001 <
b1001 =
#29000000
0$
0*
02
0:
#30000000
b00000000 !
b01101100 "
0#
1$
b00000000 '
0(
1*
b01101100 ,
b01101100 -
b0000 .
00
12
b0110 4
b0110 5
b0000 6
07
08
1:
b1100 <
b1100 =
#31000000
0$
0*
02
0:
#32000000
b11111111 !
b00110110 "
1$
b11111111 '
1*
b00110110 ,
b00110110 -
b1111 .
0/
12
b0011 4
b0011 5
b1111 6
18
1:
b0110 <
b0110 =
#33000000
0$
0*
02
0:
#34000000
b10011001 !
b10011001 "
1#
1$
b11 &
b10011001 '
1(
b11 )
1*
b10011001 ,
b10011001 -
b1001 .
1/
10
b11 1
12
b1001 4
b1001 5
b1001 6
17
b11 9
1:
b1001 <
b1001 =
#35000000
0$
0*
02
0:
#36000000
b00000000 !
1$
0%
b01 &
b00000000 '
b01 )
1*
0+
b0000 .
b01 1
12
03
b0000 6
b01 9
1:
0;
#37000000
0$
0*
02
0:
#38000000
b11111111 !
1$
b11111111 '
1*
b1111 .
12
b1111 6
1:
#39000000
0$
0*
02
0:
#40000000
b00000000 !
0#
1$
b00000000 '
0(
1*
b0000 .
00
12
b0000 6
07
1:
#41000000
0$
0*
02
0:
#42000000
b11111111 !
1$
b11111111 '
1*
b1111 .
12
b1111 6
1:
#43000000
0$
0*
02
0:
#44000000
b00000000 !
b00110011 "
1#
1$
1%
b00000000 '
1(
1*
1+
b00110011 ,
b00110011 -
b0000 .
0/
10
12
13
b0011 4
b0011 5
b0000 6
17
1:
1;
b0011 <
b0011 =
#45000000
0$
0*
02
0:
#46000000
b11111111 !
b01100111 "
1$
b11111111 '
1*
b01100111 ,
b01100111 -
b1111 .
12
b0110 4
b0110 5
b1111 6
08
1:
b0111 <
b0111 =
#47000000
0$
0*
02
0:
#48000000
b00000000 !
b11001110 "
0#
1$
b00000000 '
0(
1*
b11001110 ,
b11001110 -
b0000 .
1/
00
12
b1100 4
b1100 5
b0000 6
07
1:
b1110 <
b1110 =
#49000000
0$
0*
02
0:
#50000000
b11111111 !
b10011100 "
1$
b11111111 '
1*
b10011100 ,
b10011100 -
b1111 .
12
b1001 4
b1001 5
b1111 6
18
1:
b1100 <
b1100 =
#51000000
0$
0*
02
0:
#52000000
b10111011 !
b10111011 "
1#
1$
b11 &
b10111011 '
1(
b11 )
1*
b10111011 ,
b10111011 -
b1011 .
10
b11 1
12
b1011 4
b1011 5
b1011 6
17
b11 9
1:
b1011 <
b1011 =
#53000000
0$
0*
02
0:
#54000000
b01010101 !
1$
0%
b00 &
b01010101 '
b00 )
1*
0+
b0101 .
b00 1
12
03
b0101 6
b00 9
1:
0;
#55000000
0$
0*
02
0:
#56000000
b10101010 !
1$
b10101010 '
1*
b1010 .
12
b1010 6
1:
#57000000
0$
0*
02
0:
#58000000
b01010101 !
0#
1$
b01010101 '
0(
1*
b0101 .
00
12
b0101 6
07
1:
#59000000
0$
0*
02
0:
#60000000
b11101110 !
1$
b11101110 '
1*
b1110 .
12
b1110 6
1:
#61000000
0$
0*
02
0:
#62000000
1#
1$
1%
1(
1*
1+
10
12
13
17
1:
1;
#63000000
0$
0*
02
0:
#64000000
b01010101 !
1$
b01010101 '
1*
b0101 .
12
b0101 6
1:
#65000000
0$
0*
02
0:
#66000000
b10011001 !
0#
1$
b10011001 '
0(
1*
b1001 .
00
12
b1001 6
07
1:
#67000000
0$
0*
02
0:
#68000000
b11111111 !
1$
b11111111 '
1*
b1111 .
12
b1111 6
1:
