single_cycle.vcd
$date
  Thu May 03 22:07:29 2018
$end
$version
  GHDL v0
$end
$timescale
  1 fs
$end
$var reg 8 ! current_instruction[7:0] $end
$var reg 8 " current_output[7:0] $end
$var reg 1 # clock $end
$scope module single_cycle_cpu $end
$var reg 8 $ i[7:0] $end
$var reg 1 % clk $end
$var reg 8 & o[7:0] $end
$var reg 8 ' sign_extend_val[7:0] $end
$var reg 8 ( write_data_input[7:0] $end
$var reg 8 ) rs_value[7:0] $end
$var reg 8 * rt_value[7:0] $end
$var reg 8 + addsub_input_a[7:0] $end
$var reg 8 , addsub_input_b[7:0] $end
$var reg 8 - adder_subtractor_8b_out[7:0] $end
$var reg 1 . display_enable $end
$var reg 1 / write_enable $end
$var reg 1 0 subtraction_enable $end
$var reg 2 1 rs_in[1:0] $end
$var reg 2 2 rt_in[1:0] $end
$var reg 2 3 des_in[1:0] $end
$var reg 1 4 internal_clock $end
$var reg 4 5 skip[3:0] $end
$scope module sign_extend $end
$var reg 4 6 in_4b[3:0] $end
$var reg 8 7 out_8b[7:0] $end
$upscope $end
$scope module register_mod $end
$var reg 2 8 rs[1:0] $end
$var reg 2 9 rt[1:0] $end
$var reg 2 : des[1:0] $end
$var reg 8 ; write_data[7:0] $end
$var reg 1 < clk $end
$var reg 1 = enablewrite $end
$var reg 8 > rsval[7:0] $end
$var reg 8 ? rtval[7:0] $end
$var reg 2 @ select0[1:0] $end
$var reg 2 A select1[1:0] $end
$var reg 2 B select2[1:0] $end
$var reg 2 C select3[1:0] $end
$var reg 8 D reg0val[7:0] $end
$var reg 8 E reg1val[7:0] $end
$var reg 8 F reg2val[7:0] $end
$var reg 8 G reg3val[7:0] $end
$var reg 1 H triggerregisters $end
$scope module reg0 $end
$var reg 8 I i[7:0] $end
$var reg 1 J i_shift_in $end
$var reg 2 K sel[1:0] $end
$var reg 1 L clock $end
$var reg 1 M enable $end
$var reg 8 N o[7:0] $end
$var reg 8 O output_value[7:0] $end
$scope module shift_reg_1 $end
$var reg 4 P i[3:0] $end
$var reg 1 Q r_shift_in $end
$var reg 1 R l_shift_in $end
$var reg 2 S sel[1:0] $end
$var reg 1 T clock $end
$var reg 1 U enable $end
$var reg 4 V o[3:0] $end
$var reg 4 W next_value[3:0] $end
$upscope $end
$scope module shift_reg_2 $end
$var reg 4 X i[3:0] $end
$var reg 1 Y r_shift_in $end
$var reg 1 Z l_shift_in $end
$var reg 2 [ sel[1:0] $end
$var reg 1 \ clock $end
$var reg 1 ] enable $end
$var reg 4 ^ o[3:0] $end
$var reg 4 _ next_value[3:0] $end
$upscope $end
$upscope $end
$scope module reg1 $end
$var reg 8 ` i[7:0] $end
$var reg 1 a i_shift_in $end
$var reg 2 b sel[1:0] $end
$var reg 1 c clock $end
$var reg 1 d enable $end
$var reg 8 e o[7:0] $end
$var reg 8 f output_value[7:0] $end
$scope module shift_reg_1 $end
$var reg 4 g i[3:0] $end
$var reg 1 h r_shift_in $end
$var reg 1 i l_shift_in $end
$var reg 2 j sel[1:0] $end
$var reg 1 k clock $end
$var reg 1 l enable $end
$var reg 4 m o[3:0] $end
$var reg 4 n next_value[3:0] $end
$upscope $end
$scope module shift_reg_2 $end
$var reg 4 o i[3:0] $end
$var reg 1 p r_shift_in $end
$var reg 1 q l_shift_in $end
$var reg 2 r sel[1:0] $end
$var reg 1 s clock $end
$var reg 1 t enable $end
$var reg 4 u o[3:0] $end
$var reg 4 v next_value[3:0] $end
$upscope $end
$upscope $end
$scope module reg2 $end
$var reg 8 w i[7:0] $end
$var reg 1 x i_shift_in $end
$var reg 2 y sel[1:0] $end
$var reg 1 z clock $end
$var reg 1 { enable $end
$var reg 8 | o[7:0] $end
$var reg 8 } output_value[7:0] $end
$scope module shift_reg_1 $end
$var reg 4 !" i[3:0] $end
$var reg 1 "" r_shift_in $end
$var reg 1 #" l_shift_in $end
$var reg 2 $" sel[1:0] $end
$var reg 1 %" clock $end
$var reg 1 &" enable $end
$var reg 4 '" o[3:0] $end
$var reg 4 (" next_value[3:0] $end
$upscope $end
$scope module shift_reg_2 $end
$var reg 4 )" i[3:0] $end
$var reg 1 *" r_shift_in $end
$var reg 1 +" l_shift_in $end
$var reg 2 ," sel[1:0] $end
$var reg 1 -" clock $end
$var reg 1 ." enable $end
$var reg 4 /" o[3:0] $end
$var reg 4 0" next_value[3:0] $end
$upscope $end
$upscope $end
$scope module reg3 $end
$var reg 8 1" i[7:0] $end
$var reg 1 2" i_shift_in $end
$var reg 2 3" sel[1:0] $end
$var reg 1 4" clock $end
$var reg 1 5" enable $end
$var reg 8 6" o[7:0] $end
$var reg 8 7" output_value[7:0] $end
$scope module shift_reg_1 $end
$var reg 4 8" i[3:0] $end
$var reg 1 9" r_shift_in $end
$var reg 1 :" l_shift_in $end
$var reg 2 ;" sel[1:0] $end
$var reg 1 <" clock $end
$var reg 1 =" enable $end
$var reg 4 >" o[3:0] $end
$var reg 4 ?" next_value[3:0] $end
$upscope $end
$scope module shift_reg_2 $end
$var reg 4 @" i[3:0] $end
$var reg 1 A" r_shift_in $end
$var reg 1 B" l_shift_in $end
$var reg 2 C" sel[1:0] $end
$var reg 1 D" clock $end
$var reg 1 E" enable $end
$var reg 4 F" o[3:0] $end
$var reg 4 G" next_value[3:0] $end
$upscope $end
$upscope $end
$upscope $end
$scope module adder_subtractor $end
$var reg 1 H" mode $end
$var reg 8 I" a[7:0] $end
$var reg 8 J" b[7:0] $end
$var reg 8 K" c[7:0] $end
$var reg 1 L" b0 $end
$var reg 1 M" b1 $end
$var reg 1 N" b2 $end
$var reg 1 O" b3 $end
$var reg 1 P" b4 $end
$var reg 1 Q" b5 $end
$var reg 1 R" b6 $end
$var reg 1 S" b7 $end
$var reg 1 T" c1 $end
$var reg 1 U" c2 $end
$var reg 1 V" c3 $end
$var reg 1 W" c4 $end
$var reg 1 X" c5 $end
$var reg 1 Y" c6 $end
$var reg 1 Z" c7 $end
$var reg 1 [" c8 $end
$scope module fa1 $end
$var reg 1 \" a $end
$var reg 1 ]" b $end
$var reg 1 ^" cin $end
$var reg 1 _" s $end
$var reg 1 `" cout $end
$upscope $end
$scope module fa2 $end
$var reg 1 a" a $end
$var reg 1 b" b $end
$var reg 1 c" cin $end
$var reg 1 d" s $end
$var reg 1 e" cout $end
$upscope $end
$scope module fa3 $end
$var reg 1 f" a $end
$var reg 1 g" b $end
$var reg 1 h" cin $end
$var reg 1 i" s $end
$var reg 1 j" cout $end
$upscope $end
$scope module fa4 $end
$var reg 1 k" a $end
$var reg 1 l" b $end
$var reg 1 m" cin $end
$var reg 1 n" s $end
$var reg 1 o" cout $end
$upscope $end
$scope module fa5 $end
$var reg 1 p" a $end
$var reg 1 q" b $end
$var reg 1 r" cin $end
$var reg 1 s" s $end
$var reg 1 t" cout $end
$upscope $end
$scope module fa6 $end
$var reg 1 u" a $end
$var reg 1 v" b $end
$var reg 1 w" cin $end
$var reg 1 x" s $end
$var reg 1 y" cout $end
$upscope $end
$scope module fa7 $end
$var reg 1 z" a $end
$var reg 1 {" b $end
$var reg 1 |" cin $end
$var reg 1 }" s $end
$var reg 1 !# cout $end
$upscope $end
$scope module fa8 $end
$var reg 1 "# a $end
$var reg 1 ## b $end
$var reg 1 $# cin $end
$var reg 1 %# s $end
$var reg 1 &# cout $end
$upscope $end
$upscope $end
$scope module display $end
$var reg 8 '# reg_data[7:0] $end
$var reg 2 (# reg_num[1:0] $end
$var reg 1 )# enable $end
$var reg 1 *# clk $end
$upscope $end
$upscope $end
$enddefinitions $end
#0
b01000000 !
b00000000 "
1#
b01000000 $
1%
b00000000 &
b00000000 '
b00000000 (
b00000000 )
b00000000 *
b00000000 +
b00000000 ,
b00000000 -
1.
0/
00
b00 1
b00 2
b00 3
14
b0000 5
b0000 6
b00000000 7
b00 8
b00 9
b00 :
b00000000 ;
1<
0=
b00000000 >
b00000000 ?
b00 @
b00 A
b00 B
b00 C
b00000000 D
b00000000 E
b00000000 F
b00000000 G
0H
b00000000 I
0J
b00 K
0L
1M
b00000000 N
b00000000 O
b0000 P
0Q
0R
b00 S
0T
1U
b0000 V
b0000 W
b0000 X
0Y
0Z
b00 [
0\
1]
b0000 ^
b0000 _
b00000000 `
0a
b00 b
0c
1d
b00000000 e
b00000000 f
b0000 g
0h
0i
b00 j
0k
1l
b0000 m
b0000 n
b0000 o
0p
0q
b00 r
0s
1t
b0000 u
b0000 v
b00000000 w
0x
b00 y
0z
1{
b00000000 |
b00000000 }
b0000 !"
0""
0#"
b00 $"
0%"
1&"
b0000 '"
b0000 ("
b0000 )"
0*"
0+"
b00 ,"
0-"
1."
b0000 /"
b0000 0"
b00000000 1"
02"
b00 3"
04"
15"
b00000000 6"
b00000000 7"
b0000 8"
09"
0:"
b00 ;"
0<"
1="
b0000 >"
b0000 ?"
b0000 @"
0A"
0B"
b00 C"
0D"
1E"
b0000 F"
b0000 G"
0H"
b00000000 I"
b00000000 J"
b00000000 K"
0L"
0M"
0N"
0O"
0P"
0Q"
0R"
0S"
0T"
0U"
0V"
0W"
0X"
0Y"
0Z"
0["
0\"
0]"
0^"
0_"
0`"
0a"
0b"
0c"
0d"
0e"
0f"
0g"
0h"
0i"
0j"
0k"
0l"
0m"
0n"
0o"
0p"
0q"
0r"
0s"
0t"
0u"
0v"
0w"
0x"
0y"
0z"
0{"
0|"
0}"
0!#
0"#
0##
0$#
0%#
0&#
b00000000 '#
b00 (#
1)#
1*#
#1000000
0#
0%
04
0<
1H
1L
1T
1\
1c
1k
1s
1z
1%"
1-"
14"
1<"
1D"
0*#
#2000000
b01001000 !
1#
b01001000 $
1%
b11111000 '
b01 1
14
b1000 6
b11111000 7
b01 8
1<
0H
0L
0T
0\
0c
0k
0s
0z
0%"
0-"
04"
0<"
0D"
b01 (#
1*#
#3000000
0#
0%
04
0<
1H
1L
1T
1\
1c
1k
1s
1z
1%"
1-"
14"
1<"
1D"
0*#
#4000000
b01010000 !
1#
b01010000 $
1%
b00000000 '
b10 1
b01 3
14
b0000 6
b00000000 7
b10 8
b01 :
1<
0H
0L
0T
0\
0c
0k
0s
0z
0%"
0-"
04"
0<"
0D"
b10 (#
1*#
#5000000
0#
0%
04
0<
1H
1L
1T
1\
1c
1k
1s
1z
1%"
1-"
14"
1<"
1D"
0*#
#6000000
b01011000 !
1#
b01011000 $
1%
b11111000 '
b11 1
14
b1000 6
b11111000 7
b11 8
1<
0H
0L
0T
0\
0c
0k
0s
0z
0%"
0-"
04"
0<"
0D"
b11 (#
1*#
#7000000
0#
0%
04
0<
1H
1L
1T
1\
1c
1k
1s
1z
1%"
1-"
14"
1<"
1D"
0*#
#8000000
b00000111 !
b00000111 "
1#
b00000111 $
1%
b00000111 &
b00000111 '
b00000111 (
b00000111 ,
b00000111 -
0.
1/
b01 1
b11 2
b00 3
14
b0111 6
b00000111 7
b01 8
b11 9
b00 :
b00000111 ;
1<
1=
b11 @
0H
b00000111 I
b11 K
0L
b0000 P
b11 S
0T
b0111 X
b11 [
0\
b00000111 `
0c
b0000 g
0k
b0111 o
0s
b00000111 w
0z
b0000 !"
0%"
b0111 )"
0-"
b00000111 1"
04"
b0000 8"
0<"
b0111 @"
0D"
b00000111 J"
b00000111 K"
1L"
1M"
1N"
0O"
0P"
0Q"
0R"
0S"
1]"
1_"
1b"
1d"
1g"
1i"
0l"
0n"
0q"
0s"
0v"
0x"
0{"
0}"
0##
0%#
b01 (#
0)#
1*#
#9000000
0#
0%
04
0<
b00000111 D
1H
1L
b00000111 N
b00000111 O
1T
1\
b0111 ^
b0111 _
1c
1k
1s
1z
1%"
1-"
14"
1<"
1D"
0*#
#10000000
b00011000 !
b11111000 "
1#
b00011000 $
1%
b11111000 &
b11111000 '
b11111000 (
b00000111 *
b11111000 ,
b11111000 -
b10 1
b00 2
b01 3
14
b1000 6
b11111000 7
b10 8
b00 9
b01 :
b11111000 ;
1<
b00000111 ?
b00 @
b11 A
0H
b11111000 I
b00 K
0L
b1111 P
b00 S
0T
b1000 X
b00 [
0\
b11111000 `
b11 b
0c
b1111 g
b11 j
0k
b1000 o
b11 r
0s
b11111000 w
0z
b1111 !"
0%"
b1000 )"
0-"
b11111000 1"
04"
b1111 8"
0<"
b1000 @"
0D"
b11111000 J"
b11111000 K"
0L"
0M"
0N"
1O"
1P"
1Q"
1R"
1S"
0]"
0_"
0b"
0d"
0g"
0i"
1l"
1n"
1q"
1s"
1v"
1x"
1{"
1}"
1##
1%#
b10 (#
1*#
#11000000
0#
0%
04
0<
b11111000 E
1H
1L
1T
1\
1c
b11111000 e
b11111000 f
1h
1k
b1111 m
b1111 n
1q
1s
b1000 u
b1000 v
1z
1%"
1-"
14"
1<"
1D"
0*#
#12000000
b00101111 !
b11111111 "
1#
b00101111 $
1%
b11111111 &
b11111111 '
b11111111 (
b00000000 *
b11111111 ,
b11111111 -
b11 1
b11 2
b10 3
14
b1111 6
b11111111 7
b11 8
b11 9
b10 :
b11111111 ;
1<
b00000000 ?
b00 A
b11 B
0H
b11111111 I
0L
0T
b1111 X
0\
b11111111 `
b00 b
0c
b00 j
0k
b1111 o
b00 r
0s
b11111111 w
b11 y
0z
b11 $"
0%"
b1111 )"
b11 ,"
0-"
b11111111 1"
04"
0<"
b1111 @"
0D"
b11111111 J"
b11111111 K"
1L"
1M"
1N"
1]"
1_"
1b"
1d"
1g"
1i"
b11 (#
1*#
#13000000
0#
0%
04
0<
b11111111 F
1H
1L
1T
1\
1c
1k
1s
1z
b11111111 |
b11111111 }
1""
1%"
b1111 '"
b1111 ("
1+"
1-"
b1111 /"
b1111 0"
14"
1<"
1D"
0*#
#14000000
b00110000 !
b00000000 "
1#
b00110000 $
1%
b00000000 &
b00000000 '
b00000000 (
b00000111 )
b00000111 *
b00000000 ,
b00000000 -
b00 1
b00 2
b11 3
14
b0000 6
b00000000 7
b00 8
b00 9
b11 :
b00000000 ;
1<
b00000111 >
b00000111 ?
b00 B
b11 C
0H
b00000000 I
0L
b0000 P
0T
b0000 X
0\
b00000000 `
0c
b0000 g
0k
b0000 o
0s
b00000000 w
b00 y
0z
b0000 !"
b00 $"
0%"
b0000 )"
b00 ,"
0-"
b00000000 1"
b11 3"
04"
b0000 8"
b11 ;"
0<"
b0000 @"
b11 C"
0D"
b00000000 J"
b00000000 K"
0L"
0M"
0N"
0O"
0P"
0Q"
0R"
0S"
0]"
0_"
0b"
0d"
0g"
0i"
0l"
0n"
0q"
0s"
0v"
0x"
0{"
0}"
0##
0%#
b00000111 '#
b00 (#
1*#
#15000000
0#
0%
04
0<
1H
1L
1T
1\
1c
1k
1s
1z
1%"
1-"
14"
1<"
1D"
0*#
#16000000
b01000000 !
b00001110 "
1#
b01000000 $
1%
b00001110 &
b00001110 (
b00000111 +
b00000111 ,
b00001110 -
1.
0/
b00 3
14
b00 :
b00001110 ;
1<
0=
b00 C
0H
b00001110 I
0L
0T
b1110 X
0\
b00001110 `
0c
0k
b1110 o
0s
b00001110 w
0z
0%"
b1110 )"
0-"
b00001110 1"
b00 3"
04"
b00 ;"
0<"
b1110 @"
b00 C"
0D"
b00000111 I"
b00000111 J"
b00001110 K"
1L"
1M"
1N"
1T"
1U"
1V"
1\"
1]"
0_"
1`"
1a"
1b"
1c"
1d"
1e"
1f"
1g"
1h"
1i"
1j"
1m"
1n"
1)#
1*#
#17000000
0#
0%
04
0<
1H
1L
1T
1\
1c
1k
1s
1z
1%"
1-"
14"
1<"
1D"
0*#
#18000000
b01001000 !
b11111111 "
1#
b01001000 $
1%
b11111111 &
b11111000 '
b11111111 (
b11111000 )
b11111000 +
b11111111 -
b01 1
14
b1000 6
b11111000 7
b01 8
b11111111 ;
1<
b11111000 >
0H
b11111111 I
0L
b1111 P
0T
b1111 X
0\
b11111111 `
0c
b1111 g
0k
b1111 o
0s
b11111111 w
0z
b1111 !"
0%"
b1111 )"
0-"
b11111111 1"
04"
b1111 8"
0<"
b1111 @"
0D"
b11111000 I"
b11111111 K"
0T"
0U"
0V"
0W"
0X"
0Y"
0Z"
0["
0\"
1_"
0`"
0a"
0c"
1d"
0e"
0f"
0h"
1i"
0j"
1k"
0m"
1n"
0o"
1p"
0r"
1s"
0t"
1u"
0w"
1x"
0y"
1z"
0|"
1}"
0!#
1"#
0$#
1%#
0&#
b11111000 '#
b01 (#
1*#
#19000000
0#
0%
04
0<
1H
1L
1T
1\
1c
1k
1s
1z
1%"
1-"
14"
1<"
1D"
0*#
#20000000
b01010000 !
b00000110 "
1#
b01010000 $
1%
b00000110 &
b00000000 '
b00000110 (
b11111111 )
b11111111 +
b00000110 -
b10 1
b01 3
14
b0000 6
b00000000 7
b10 8
b01 :
b00000110 ;
1<
b11111111 >
0H
b00000110 I
0L
b0000 P
0T
b0110 X
0\
b00000110 `
0c
b0000 g
0k
b0110 o
0s
b00000110 w
0z
b0000 !"
0%"
b0110 )"
0-"
b00000110 1"
04"
b0000 8"
0<"
b0110 @"
0D"
b11111111 I"
b00000110 K"
1T"
1U"
1V"
1W"
1X"
1Y"
1Z"
1["
1\"
0_"
1`"
1a"
1c"
1d"
1e"
1f"
1h"
1i"
1j"
1m"
0n"
1o"
1r"
0s"
1t"
1w"
0x"
1y"
1|"
0}"
1!#
1$#
0%#
1&#
b11111111 '#
b10 (#
1*#
#21000000
0#
0%
04
0<
1H
1L
1T
1\
1c
1k
1s
1z
1%"
1-"
14"
1<"
1D"
0*#
#22000000
b01011000 !
b00000111 "
1#
b01011000 $
1%
b00000111 &
b11111000 '
b00000111 (
b00000000 )
b00000000 +
b00000111 -
b11 1
14
b1000 6
b11111000 7
b11 8
b00000111 ;
1<
b00000000 >
0H
b00000111 I
0L
b0000 P
0T
b0111 X
0\
b00000111 `
0c
b0000 g
0k
b0111 o
0s
b00000111 w
0z
b0000 !"
0%"
b0111 )"
0-"
b00000111 1"
04"
b0000 8"
0<"
b0111 @"
0D"
b00000000 I"
b00000111 K"
0T"
0U"
0V"
0W"
0X"
0Y"
0Z"
0["
0\"
1_"
0`"
0a"
0c"
1d"
0e"
0f"
0h"
1i"
0j"
0k"
0m"
0n"
0o"
0p"
0r"
0s"
0t"
0u"
0w"
0x"
0y"
0z"
0|"
0}"
0!#
0"#
0$#
0%#
0&#
b00000000 '#
b11 (#
1*#
#23000000
0#
0%
04
0<
1H
1L
1T
1\
1c
1k
1s
1z
1%"
1-"
14"
1<"
1D"
0*#
#24000000
b00000011 !
b00000011 "
1#
b00000011 $
1%
b00000011 &
b00000011 '
b00000011 (
b00000111 )
b00000000 *
b00000011 ,
b00000011 -
0.
1/
b00 1
b11 2
b00 3
14
b0011 6
b00000011 7
b00 8
b11 9
b00 :
b00000011 ;
1<
1=
b00000111 >
b00000000 ?
b11 @
0H
b00000011 I
b11 K
0L
b0000 P
b11 S
0T
b0011 X
b11 [
0\
b00000011 `
0c
b0000 g
0k
b0011 o
0s
b00000011 w
0z
b0000 !"
0%"
b0011 )"
0-"
b00000011 1"
04"
b0000 8"
0<"
b0011 @"
0D"
b00000011 J"
b00000011 K"
1L"
1M"
0N"
0O"
0P"
0Q"
0R"
0S"
1]"
1_"
1b"
1d"
0g"
0i"
0l"
0n"
0q"
0s"
0v"
0x"
0{"
0}"
0##
0%#
b00000111 '#
b00 (#
0)#
1*#
#25000000
0#
0%
b00000011 )
04
0<
b00000011 >
b00000011 D
1H
1L
b00000011 N
b00000011 O
1T
1\
b0011 ^
b0011 _
1c
1k
1s
1z
1%"
1-"
14"
1<"
1D"
b00000011 '#
0*#
#26000000
b00010010 !
b00000010 "
1#
b00010010 $
1%
b00000010 &
b00000010 '
b00000010 (
b11111111 *
b00000010 ,
b00000010 -
b10 2
b01 3
14
b0010 6
b00000010 7
b10 9
b01 :
b00000010 ;
1<
b11111111 ?
b00 @
b11 A
0H
b00000010 I
b00 K
0L
b00 S
0T
b0010 X
b00 [
0\
b00000010 `
b11 b
0c
b11 j
0k
b0010 o
b11 r
0s
b00000010 w
0z
0%"
b0010 )"
0-"
b00000010 1"
04"
0<"
b0010 @"
0D"
b00000010 J"
b00000010 K"
0L"
0]"
0_"
1*#
#27000000
0#
0%
04
0<
b00000010 E
1H
1L
1T
1\
1c
b00000010 e
b00000010 f
0h
1k
b0000 m
b0000 n
0q
1s
b0010 u
b0010 v
1z
1%"
1-"
14"
1<"
1D"
0*#
#28000000
b00100100 !
b00000100 "
1#
b00100100 $
1%
b00000100 &
b00000100 '
b00000100 (
b00000010 )
b00000011 *
b00000100 ,
b00000100 -
b01 1
b00 2
b10 3
14
b0100 6
b00000100 7
b01 8
b00 9
b10 :
b00000100 ;
1<
b00000010 >
b00000011 ?
b00 A
b11 B
0H
b00000100 I
0L
0T
b0100 X
0\
b00000100 `
b00 b
0c
b00 j
0k
b0100 o
b00 r
0s
b00000100 w
b11 y
0z
b11 $"
0%"
b0100 )"
b11 ,"
0-"
b00000100 1"
04"
0<"
b0100 @"
0D"
b00000100 J"
b00000100 K"
0M"
1N"
0b"
0d"
1g"
1i"
b00000010 '#
b01 (#
1*#
#29000000
0#
0%
04
0<
b00000100 F
1H
1L
1T
1\
1c
1k
1s
1z
b00000100 |
b00000100 }
0""
1%"
b0000 '"
b0000 ("
0+"
1-"
b0100 /"
b0100 0"
14"
1<"
1D"
0*#
#30000000
b00110001 !
b00000001 "
1#
b00110001 $
1%
b00000001 &
b00000001 '
b00000001 (
b00000011 )
b00000010 *
b00000001 ,
b00000001 -
b00 1
b01 2
b11 3
14
b0001 6
b00000001 7
b00 8
b01 9
b11 :
b00000001 ;
1<
b00000011 >
b00000010 ?
b00 B
b11 C
0H
b00000001 I
0L
0T
b0001 X
0\
b00000001 `
0c
0k
b0001 o
0s
b00000001 w
b00 y
0z
b00 $"
0%"
b0001 )"
b00 ,"
0-"
b00000001 1"
b11 3"
04"
b11 ;"
0<"
b0001 @"
b11 C"
0D"
b00000001 J"
b00000001 K"
1L"
0N"
1]"
1_"
0g"
0i"
b00000011 '#
b00 (#
1*#
#31000000
0#
0%
04
0<
b00000001 G
1H
1L
1T
1\
1c
1k
1s
1z
1%"
1-"
14"
b00000001 6"
b00000001 7"
1<"
1D"
b0001 F"
b0001 G"
0*#
#32000000
b01000000 !
b00000110 "
1#
b01000000 $
1%
b00000110 &
b00000000 '
b00000110 (
b00000011 *
b00000011 +
b00000011 ,
b00000110 -
1.
0/
b00 2
b00 3
14
b0000 6
b00000000 7
b00 9
b00 :
b00000110 ;
1<
0=
b00000011 ?
b00 C
0H
b00000110 I
0L
0T
b0110 X
0\
b00000110 `
0c
0k
b0110 o
0s
b00000110 w
0z
0%"
b0110 )"
0-"
b00000110 1"
b00 3"
04"
b00 ;"
0<"
b0110 @"
b00 C"
0D"
b00000011 I"
b00000011 J"
b00000110 K"
1L"
1M"
1T"
1U"
1\"
1]"
0_"
1`"
1a"
1b"
1c"
1d"
1e"
1h"
1i"
1)#
1*#
#33000000
0#
0%
04
0<
1H
1L
1T
1\
1c
1k
1s
1z
1%"
1-"
14"
1<"
1D"
0*#
#34000000
b01001000 !
b00000101 "
1#
b01001000 $
1%
b00000101 &
b11111000 '
b00000101 (
b00000010 )
b00000010 +
b00000101 -
b01 1
14
b1000 6
b11111000 7
b01 8
b00000101 ;
1<
b00000010 >
0H
b00000101 I
0L
0T
b0101 X
0\
b00000101 `
0c
0k
b0101 o
0s
b00000101 w
0z
0%"
b0101 )"
0-"
b00000101 1"
04"
0<"
b0101 @"
0D"
b00000010 I"
b00000101 K"
0T"
0\"
1_"
0`"
0c"
0d"
b00000010 '#
b01 (#
1*#
#35000000
0#
0%
04
0<
1H
1L
1T
1\
1c
1k
1s
1z
1%"
1-"
14"
1<"
1D"
0*#
#36000000
b01010000 !
b00000111 "
1#
b01010000 $
1%
b00000111 &
b00000000 '
b00000111 (
b00000100 )
b00000100 +
b00000111 -
b10 1
b01 3
14
b0000 6
b00000000 7
b10 8
b01 :
b00000111 ;
1<
b00000100 >
0H
b00000111 I
0L
0T
b0111 X
0\
b00000111 `
0c
0k
b0111 o
0s
b00000111 w
0z
0%"
b0111 )"
0-"
b00000111 1"
04"
0<"
b0111 @"
0D"
b00000100 I"
b00000111 K"
0U"
0V"
0a"
1d"
0e"
1f"
0h"
1i"
0j"
0m"
0n"
b00000100 '#
b10 (#
1*#
#37000000
0#
0%
04
0<
1H
1L
1T
1\
1c
1k
1s
1z
1%"
1-"
14"
1<"
1D"
0*#
#38000000
b01011000 !
b00000100 "
1#
b01011000 $
1%
b00000100 &
b11111000 '
b00000100 (
b00000001 )
b00000001 +
b00000100 -
b11 1
14
b1000 6
b11111000 7
b11 8
b00000100 ;
1<
b00000001 >
0H
b00000100 I
0L
0T
b0100 X
0\
b00000100 `
0c
0k
b0100 o
0s
b00000100 w
0z
0%"
b0100 )"
0-"
b00000100 1"
04"
0<"
b0100 @"
0D"
b00000001 I"
b00000100 K"
1T"
1U"
1\"
0_"
1`"
1c"
0d"
1e"
0f"
1h"
1i"
b00000001 '#
b11 (#
1*#
#39000000
0#
0%
04
0<
1H
1L
1T
1\
1c
1k
1s
1z
1%"
1-"
14"
1<"
1D"
0*#
#40000000
b00000001 !
b00000001 "
1#
b00000001 $
1%
b00000001 &
b00000001 '
b00000001 (
b00000011 )
b00000010 *
b00000000 +
b00000001 ,
b00000001 -
0.
1/
b00 1
b01 2
b00 3
14
b0001 6
b00000001 7
b00 8
b01 9
b00 :
b00000001 ;
1<
1=
b00000011 >
b00000010 ?
b11 @
0H
b00000001 I
b11 K
0L
b0000 P
b11 S
0T
b0001 X
b11 [
0\
b00000001 `
0c
b0000 g
0k
b0001 o
0s
b00000001 w
0z
b0000 !"
0%"
b0001 )"
0-"
b00000001 1"
04"
b0000 8"
0<"
b0001 @"
0D"
b00000000 I"
b00000001 J"
b00000001 K"
1L"
0M"
0O"
0P"
0Q"
0R"
0S"
0T"
0U"
0\"
1]"
1_"
0`"
0b"
0c"
0e"
0h"
0i"
0l"
0n"
0q"
0s"
0v"
0x"
0{"
0}"
0##
0%#
b00000011 '#
b00 (#
0)#
1*#
#41000000
0#
0%
b00000001 )
04
0<
b00000001 >
b00000001 D
1H
1L
b00000001 N
b00000001 O
1T
1\
b0001 ^
b0001 _
1c
1k
1s
1z
1%"
1-"
14"
1<"
1D"
b00000001 '#
0*#
#42000000
b00010001 !
1#
b00010001 $
1%
b01 3
14
b01 :
1<
b00 @
b11 A
0H
b00 K
0L
b00 S
0T
b00 [
0\
b11 b
0c
b11 j
0k
b11 r
0s
0z
0%"
0-"
04"
0<"
0D"
1*#
#43000000
0#
0%
b00000001 *
04
0<
b00000001 ?
b00000001 E
1H
1L
1T
1\
1c
b00000001 e
b00000001 f
1k
1s
b0001 u
b0001 v
1z
1%"
1-"
14"
1<"
1D"
0*#
#44000000
b11100001 !
b00000010 "
1#
b11100001 $
1%
b00000010 &
b00000010 (
b00000001 +
b00000010 -
b10 3
14
b10 :
b00000010 ;
1<
b00 A
b11 B
0H
b00000010 I
0L
0T
b0010 X
0\
b00000010 `
b00 b
0c
b00 j
0k
b0010 o
b00 r
0s
b00000010 w
b11 y
0z
b11 $"
0%"
b0010 )"
b11 ,"
0-"
b00000010 1"
04"
0<"
b0010 @"
0D"
b00000001 I"
b00000010 K"
1T"
1\"
0_"
1`"
1c"
1d"
1*#
#45000000
0#
0%
04
0<
b00000010 F
1H
1L
1T
1\
1c
1k
1s
1z
b00000010 |
b00000010 }
1%"
1-"
b0010 /"
b0010 0"
14"
1<"
1D"
0*#
#46000000
b01010000 !
b00000011 "
1#
b01010000 $
1%
b00000011 &
b00000000 '
b00000011 (
b00000010 )
b00000010 +
b00000011 -
1.
0/
b10 1
b00 2
b01 3
14
b0000 6
b00000000 7
b10 8
b00 9
b01 :
b00000011 ;
1<
0=
b00000010 >
b00 B
0H
b00000011 I
0L
0T
b0011 X
0\
b00000011 `
0c
0k
b0011 o
0s
b00000011 w
b00 y
0z
b00 $"
0%"
b0011 )"
b00 ,"
0-"
b00000011 1"
04"
0<"
b0011 @"
0D"
b00000010 I"
b00000011 K"
0T"
0U"
0\"
1_"
0`"
1a"
0c"
1d"
0e"
0h"
0i"
b00000010 '#
b10 (#
1)#
1*#
#47000000
0#
0%
04
0<
1H
1L
1T
1\
1c
1k
1s
1z
1%"
1-"
14"
1<"
1D"
0*#
#48000000
b00000100 !
b00000100 "
1#
b00000100 $
1%
b00000100 &
b00000100 '
b00000100 (
b00000001 )
b00000000 +
b00000100 ,
b00000100 -
0.
1/
b01 1
b00 3
14
b0100 6
b00000100 7
b01 8
b00 :
b00000100 ;
1<
1=
b00000001 >
b11 @
0H
b00000100 I
b11 K
0L
b11 S
0T
b0100 X
b11 [
0\
b00000100 `
0c
0k
b0100 o
0s
b00000100 w
0z
0%"
b0100 )"
0-"
b00000100 1"
04"
0<"
b0100 @"
0D"
b00000000 I"
b00000100 J"
b00000100 K"
0L"
1N"
0]"
0_"
0a"
0d"
1g"
1i"
b00000001 '#
b01 (#
0)#
1*#
#49000000
0#
0%
b00000100 *
04
0<
b00000100 ?
b00000100 D
1H
1L
b00000100 N
b00000100 O
1T
1\
b0100 ^
b0100 _
1c
1k
1s
1z
1%"
1-"
14"
1<"
1D"
0*#
